{
  "name": "laravel/laravel",
  "description": "The Laravel Framework.",
  "keywords": [
    "framework",
    "laravel"
  ],
  "license": "MIT",
  "type": "project",
  "require": {
    "php": ">=5.6.4",
    "bamboohr/phpcs": "^1.0",
    "consoletvs/charts": "4.*",
    "guzzlehttp/guzzle": "^6.3",
    "laracasts/utilities": "^3.0",
    "laravel/framework": "5.4.*",
    "laravel/tinker": "~1.0",
    "laravelcollective/html": "^5.4",
    "maatwebsite/excel": "~2.1.0",
    "sentry/sentry": "^1.7",
    "sentry/sentry-laravel": "^0.8.0",
    "tymon/jwt-auth": "^0.5.12",
    "uxweb/sweet-alert": "^1.4"
  },
  "require-dev": {
    "barryvdh/laravel-debugbar": "^2.4",
    "barryvdh/laravel-ide-helper": "^2.4",
    "codedungeon/phpunit-result-printer": "^0.4.4",
    "fzaninotto/faker": "^1.6",
    "laravel/dusk": "1.0",
    "mockery/mockery": "0.9.*",
    "phpunit/phpunit": "~5.7",
    "xethron/migrations-generator": "^2.0"
  },
  "autoload": {
    "classmap": [
      "database"
    ],
    "psr-4": {
      "App\\": "app/"
    },
    "files": [
      "app/Http/helpers.php"
    ]
  },
  "autoload-dev": {
    "psr-4": {
      "Tests\\": "tests/"
    }
  },
  "scripts": {
    "post-root-package-install": [
      "php -r \"file_exists('.env') || copy('.env.example', '.env');\""
    ],
    "post-create-project-cmd": [
      "php artisan key:generate"
    ],
    "post-install-cmd": [
      "Illuminate\\Foundation\\ComposerScripts::postInstall",
      "php artisan optimize"
    ],
    "post-update-cmd": [
      "Illuminate\\Foundation\\ComposerScripts::postUpdate",
      "php artisan ide-helper:generate",
      "php artisan ide-helper:meta",
      "php artisan optimize"
    ]
  },
  "config": {
    "preferred-install": "dist",
    "sort-packages": true,
    "optimize-autoloader": true
  }
}
