{
    "/js/questions.js": "/js/questions.js",
    "/js/client-dashboard.js": "/js/client-dashboard.js",
    "/js/client-reports.js": "/js/client-reports.js",
    "/js/roles.js": "/js/roles.js",
    "/js/client-statistics.js": "/js/client-statistics.js",
    "/js/combinations.js": "/js/combinations.js",
    "/js/reports.js": "/js/reports.js",
    "/js/procedures.js": "/js/procedures.js",
    "/js/params.js": "/js/params.js",
    "/js/parameters.js": "/js/parameters.js",
    "/js/notes.js": "/js/notes.js",
    "/js/decisions.js": "/js/decisions.js",
    "/js/custom.js": "/js/custom.js",
    "/js/conflicts.js": "/js/conflicts.js",
    "/js/clients.js": "/js/clients.js",
    "/js/categories.js": "/js/categories.js"
}
